[gd_scene load_steps=4 format=2]

[ext_resource path="res://entity/asteroid/asteroid_base.tscn" type="PackedScene" id=1]
[ext_resource path="res://entity/asteroid/sprite/meteorBrown_tiny1.png" type="Texture" id=2]

[sub_resource type="CircleShape2D" id=1]
radius = 8.0

[node name="AsteroidTiny" instance=ExtResource( 1 )]

[node name="Movement" parent="." index="0"]
max_speed = 200

[node name="Shape" parent="Hitbox" index="0"]
shape = SubResource( 1 )

[node name="CauseDamage" parent="Hitbox" index="1"]
power = 5

[node name="Sprite" parent="." index="6"]
texture = ExtResource( 2 )
