[gd_scene load_steps=5 format=2]

[ext_resource path="res://entity/asteroid/asteroid_base.tscn" type="PackedScene" id=1]
[ext_resource path="res://entity/asteroid/sprite/meteorBrown_med1.png" type="Texture" id=2]
[ext_resource path="res://entity/asteroid/asteroid_small.tscn" type="PackedScene" id=3]

[sub_resource type="CircleShape2D" id=1]
radius = 20.0

[node name="AsteroidMedium" instance=ExtResource( 1 )]

[node name="Movement" parent="." index="0"]
max_speed = 75

[node name="Destructible" parent="." index="1"]
hit_points = 3

[node name="Shape" parent="Hitbox" index="0"]
shape = SubResource( 1 )

[node name="CauseDamage" parent="Hitbox" index="1"]
power = 25

[node name="Breakable" parent="." index="5"]
part_scn = ExtResource( 3 )
amount = 5
offset = 20

[node name="Sprite" parent="." index="6"]
texture = ExtResource( 2 )
rotation_speed = 90.0
