[gd_scene load_steps=4 format=2]

[ext_resource path="res://entity/player_ship/gun/bullet/bullet_base.tscn" type="PackedScene" id=1]
[ext_resource path="res://entity/player_ship/gun/bullet/laserBlue01.png" type="Texture" id=2]

[sub_resource type="CapsuleShape2D" id=1]
resource_local_to_scene = true
radius = 8.0
height = 32.0

[node name="BulletWeak" instance=ExtResource( 1 )]

[node name="Shape" parent="Hitbox" index="0"]
position = Vector2( 0, -8 )
shape = SubResource( 1 )

[node name="Sprite" parent="." index="5"]
texture = ExtResource( 2 )
